{
  "hosting": {
    "site": "web-ondamx-art",
    "public": "build",
    "ignore": [
      "firebase.json",
      "**/.*",
      "**/node_modules/**"
    ],
    "rewrites": [
      {
        "source": "**",
        "function": "app"
      }
    ]
  }
}
